\contentsline {chapter}{\numberline {1}What is \unhbox \voidb@x \hbox {{\sf {tu}}Prolog}{}}{6}{chapter.1}
\contentsline {chapter}{\numberline {2}Installing \unhbox \voidb@x \hbox {{\sf {tu}}Prolog}{}}{9}{chapter.2}
\contentsline {section}{\numberline {2.1}Installation in Java}{9}{section.2.1}
\contentsline {section}{\numberline {2.2}Installation in .NET}{11}{section.2.2}
\contentsline {section}{\numberline {2.3}Installation in Android}{11}{section.2.3}
\contentsline {section}{\numberline {2.4}Installation in Eclipse}{12}{section.2.4}
\contentsline {chapter}{\numberline {3}Getting Started}{15}{chapter.3}
\contentsline {section}{\numberline {3.1}\unhbox \voidb@x \hbox {{\sf {tu}}Prolog}{} for the Prolog User}{16}{section.3.1}
\contentsline {subsection}{\numberline {3.1.1}Editing theories}{18}{subsection.3.1.1}
\contentsline {subsection}{\numberline {3.1.2}Solving goals}{20}{subsection.3.1.2}
\contentsline {subsection}{\numberline {3.1.3}Debugging support}{22}{subsection.3.1.3}
\contentsline {subsection}{\numberline {3.1.4}Dynamic library management}{25}{subsection.3.1.4}
\contentsline {section}{\numberline {3.2}\unhbox \voidb@x \hbox {{\sf {tu}}Prolog}{} for the Java Developer}{26}{section.3.2}
\contentsline {section}{\numberline {3.3}\unhbox \voidb@x \hbox {{\sf {tu}}Prolog}{} for the .NET Developer}{33}{section.3.3}
\contentsline {section}{\numberline {3.4}\unhbox \voidb@x \hbox {{\sf {tu}}Prolog}{} for the Android User}{33}{section.3.4}
\contentsline {chapter}{\numberline {4}\unhbox \voidb@x \hbox {{\sf {tu}}Prolog}{} Basics}{39}{chapter.4}
\contentsline {section}{\numberline {4.1}Predicate categories}{39}{section.4.1}
\contentsline {section}{\numberline {4.2}Syntax}{40}{section.4.2}
\contentsline {section}{\numberline {4.3}Engine configurability}{42}{section.4.3}
\contentsline {section}{\numberline {4.4}Exception support}{43}{section.4.4}
\contentsline {subsection}{\numberline {4.4.1}Error classification}{44}{subsection.4.4.1}
\contentsline {section}{\numberline {4.5}Built-in predicates}{45}{section.4.5}
\contentsline {subsection}{\numberline {4.5.1}Control management}{45}{subsection.4.5.1}
\contentsline {subsection}{\numberline {4.5.2}Term unification and management}{47}{subsection.4.5.2}
\contentsline {subsection}{\numberline {4.5.3}Knowledge base management}{49}{subsection.4.5.3}
\contentsline {subsection}{\numberline {4.5.4}Operator and flag management}{51}{subsection.4.5.4}
\contentsline {subsection}{\numberline {4.5.5}Library management}{53}{subsection.4.5.5}
\contentsline {subsection}{\numberline {4.5.6}Directives}{54}{subsection.4.5.6}
\contentsline {chapter}{\numberline {5}\unhbox \voidb@x \hbox {{\sf {tu}}Prolog}{} Libraries}{57}{chapter.5}
\contentsline {section}{\numberline {5.1}BasicLibrary}{59}{section.5.1}
\contentsline {subsection}{\numberline {5.1.1}Predicates}{59}{subsection.5.1.1}
\contentsline {subsubsection}{\numberline {5.1.1.1}Type Testing}{59}{subsubsection.5.1.1.1}
\contentsline {subsubsection}{\numberline {5.1.1.2}Term Creation, Decomposition and Unification}{60}{subsubsection.5.1.1.2}
\contentsline {subsubsection}{\numberline {5.1.1.3}Occurs Check}{62}{subsubsection.5.1.1.3}
\contentsline {subsubsection}{\numberline {5.1.1.4}Expression and Term Comparison}{63}{subsubsection.5.1.1.4}
\contentsline {subsubsection}{\numberline {5.1.1.5}Finding Solutions}{63}{subsubsection.5.1.1.5}
\contentsline {subsubsection}{\numberline {5.1.1.6}Control Management}{64}{subsubsection.5.1.1.6}
\contentsline {subsubsection}{\numberline {5.1.1.7}Clause Retrieval, Creation and Destruction}{65}{subsubsection.5.1.1.7}
\contentsline {subsubsection}{\numberline {5.1.1.8}Operator Management}{66}{subsubsection.5.1.1.8}
\contentsline {subsubsection}{\numberline {5.1.1.9}Flag Management}{66}{subsubsection.5.1.1.9}
\contentsline {subsubsection}{\numberline {5.1.1.10}Actions on Theories and Engines}{67}{subsubsection.5.1.1.10}
\contentsline {subsubsection}{\numberline {5.1.1.11}Spy Events}{69}{subsubsection.5.1.1.11}
\contentsline {subsubsection}{\numberline {5.1.1.12}Auxiliary predicates}{69}{subsubsection.5.1.1.12}
\contentsline {subsection}{\numberline {5.1.2}Functors}{71}{subsection.5.1.2}
\contentsline {subsection}{\numberline {5.1.3}Operators}{71}{subsection.5.1.3}
\contentsline {section}{\numberline {5.2}ISOLibrary}{74}{section.5.2}
\contentsline {subsection}{\numberline {5.2.1}Predicates}{74}{subsection.5.2.1}
\contentsline {subsubsection}{\numberline {5.2.1.1}Type Testing}{74}{subsubsection.5.2.1.1}
\contentsline {subsubsection}{\numberline {5.2.1.2}Atoms Processing}{74}{subsubsection.5.2.1.2}
\contentsline {subsection}{\numberline {5.2.2}Functors}{76}{subsection.5.2.2}
\contentsline {subsection}{\numberline {5.2.3}Operators}{77}{subsection.5.2.3}
\contentsline {subsection}{\numberline {5.2.4}Flags}{77}{subsection.5.2.4}
\contentsline {section}{\numberline {5.3}IOLibrary}{78}{section.5.3}
\contentsline {subsection}{\numberline {5.3.1}Predicates}{78}{subsection.5.3.1}
\contentsline {subsubsection}{\numberline {5.3.1.1}General I/O}{78}{subsubsection.5.3.1.1}
\contentsline {subsubsection}{\numberline {5.3.1.2}Helper Predicates}{83}{subsubsection.5.3.1.2}
\contentsline {subsubsection}{\numberline {5.3.1.3}Random Generation of Numbers}{85}{subsubsection.5.3.1.3}
\contentsline {section}{\numberline {5.4}ThreadLibrary}{85}{section.5.4}
\contentsline {subsection}{\numberline {5.4.1}Predicates}{86}{subsection.5.4.1}
\contentsline {subsubsection}{\numberline {5.4.1.1}Creating and deleting threads}{86}{subsubsection.5.4.1.1}
\contentsline {subsubsection}{\numberline {5.4.1.2}Inter-thread communication via queues}{89}{subsubsection.5.4.1.2}
\contentsline {subsubsection}{\numberline {5.4.1.3}Thread synchronization via mutual exclusion}{91}{subsubsection.5.4.1.3}
\contentsline {subsection}{\numberline {5.4.2}Examples}{93}{subsection.5.4.2}
\contentsline {subsubsection}{\numberline {5.4.2.1}Factorial of two numbers}{94}{subsubsection.5.4.2.1}
\contentsline {subsubsection}{\numberline {5.4.2.2}Father and child communicating via a public queue}{94}{subsubsection.5.4.2.2}
\contentsline {subsubsection}{\numberline {5.4.2.3}Father and children communicating via a private queue}{95}{subsubsection.5.4.2.3}
\contentsline {subsubsection}{\numberline {5.4.2.4}Synchronizing thread interactions}{97}{subsubsection.5.4.2.4}
\contentsline {subsubsection}{\numberline {5.4.2.5}Flattening and manipulating lists}{99}{subsubsection.5.4.2.5}
\contentsline {section}{\numberline {5.5}DCGLibrary}{99}{section.5.5}
\contentsline {subsection}{\numberline {5.5.1}Predicates}{102}{subsection.5.5.1}
\contentsline {subsection}{\numberline {5.5.2}Operators}{103}{subsection.5.5.2}
\contentsline {section}{\numberline {5.6}ISOIOLibrary}{104}{section.5.6}
\contentsline {subsection}{\numberline {5.6.1}Predicates}{106}{subsection.5.6.1}
\contentsline {subsection}{\numberline {5.6.2}Options}{115}{subsection.5.6.2}
\contentsline {section}{\numberline {5.7}SocketLibrary}{119}{section.5.7}
\contentsline {subsection}{\numberline {5.7.1}Predicates}{120}{subsection.5.7.1}
\contentsline {subsection}{\numberline {5.7.2}Operators}{124}{subsection.5.7.2}
\contentsline {subsection}{\numberline {5.7.3}Use from the Java side: term hierarchy extension}{124}{subsection.5.7.3}
\contentsline {chapter}{\numberline {6}\unhbox \voidb@x \hbox {{\sf {tu}}Prolog}{} Exceptions}{126}{chapter.6}
\contentsline {section}{\numberline {6.1}Exceptions in ISO Prolog}{126}{section.6.1}
\contentsline {subsection}{\numberline {6.1.1}Error classification}{128}{subsection.6.1.1}
\contentsline {section}{\numberline {6.2}Exceptions in \unhbox \voidb@x \hbox {{\sf {tu}}Prolog}}{129}{section.6.2}
\contentsline {subsection}{\numberline {6.2.1}Examples}{129}{subsection.6.2.1}
\contentsline {subsection}{\numberline {6.2.2}Handling Java/.NET Exceptions from \unhbox \voidb@x \hbox {{\sf {tu}}Prolog}}{131}{subsection.6.2.2}
\contentsline {chapter}{\numberline {7}Multi-paradigm programming in Prolog and Java}{132}{chapter.7}
\contentsline {section}{\numberline {7.1}Using Java from Prolog: \textit {JavaLibrary}}{132}{section.7.1}
\contentsline {subsection}{\numberline {7.1.1}Type mapping}{133}{subsection.7.1.1}
\contentsline {subsection}{\numberline {7.1.2}Creating and accessing objects: an overview}{134}{subsection.7.1.2}
\contentsline {subsubsection}{\numberline {7.1.2.1}Examples}{138}{subsubsection.7.1.2.1}
\contentsline {subsubsection}{\numberline {7.1.2.2}Registering object bindings}{140}{subsubsection.7.1.2.2}
\contentsline {subsection}{\numberline {7.1.3}Predicates}{141}{subsection.7.1.3}
\contentsline {subsubsection}{\numberline {7.1.3.1}Object creation, class compilation and method invocation}{141}{subsubsection.7.1.3.1}
\contentsline {subsubsection}{\numberline {7.1.3.2}Array management}{144}{subsubsection.7.1.3.2}
\contentsline {subsubsection}{\numberline {7.1.3.3}Helper predicates}{146}{subsubsection.7.1.3.3}
\contentsline {subsection}{\numberline {7.1.4}Functors}{146}{subsection.7.1.4}
\contentsline {subsection}{\numberline {7.1.5}Operators}{146}{subsection.7.1.5}
\contentsline {subsection}{\numberline {7.1.6}Examples}{147}{subsection.7.1.6}
\contentsline {subsubsection}{\numberline {7.1.6.1}RMI Connection to a Remote Object}{147}{subsubsection.7.1.6.1}
\contentsline {subsubsection}{\numberline {7.1.6.2}A Swing GUI}{147}{subsubsection.7.1.6.2}
\contentsline {subsubsection}{\numberline {7.1.6.3}Database access via JDBC}{147}{subsubsection.7.1.6.3}
\contentsline {subsubsection}{\numberline {7.1.6.4}Dynamic compilation}{150}{subsubsection.7.1.6.4}
\contentsline {subsection}{\numberline {7.1.7}Handling Java Exceptions}{151}{subsection.7.1.7}
\contentsline {subsubsection}{\numberline {7.1.7.1}Java exception examples}{153}{subsubsection.7.1.7.1}
\contentsline {section}{\numberline {7.2}Using Prolog from Java: \textit {the Java API}}{157}{section.7.2}
\contentsline {subsection}{\numberline {7.2.1}A Taxonomy of Prolog types in Java}{157}{subsection.7.2.1}
\contentsline {subsubsection}{\numberline {7.2.1.1}Further notes about \texttt {Term}s}{158}{subsubsection.7.2.1.1}
\contentsline {subsection}{\numberline {7.2.2}Prolog engines, theories and libraries}{160}{subsection.7.2.2}
\contentsline {subsubsection}{\numberline {7.2.2.1}Further notes about \texttt {Prolog} engines}{160}{subsubsection.7.2.2.1}
\contentsline {subsection}{\numberline {7.2.3}Examples}{162}{subsection.7.2.3}
\contentsline {subsubsection}{\numberline {7.2.3.1}Appending lists}{162}{subsubsection.7.2.3.1}
\contentsline {subsubsection}{\numberline {7.2.3.2}Exploiting a theory from clause list}{165}{subsubsection.7.2.3.2}
\contentsline {subsubsection}{\numberline {7.2.3.3}A console-based Prolog interpreter}{165}{subsubsection.7.2.3.3}
\contentsline {subsection}{\numberline {7.2.4}Support to relative paths in consulting Prolog sub-files}{167}{subsection.7.2.4}
\contentsline {subsection}{\numberline {7.2.5}Registering object bindings}{168}{subsection.7.2.5}
\contentsline {subsection}{\numberline {7.2.6}Capturing the Prolog output in Java}{170}{subsection.7.2.6}
\contentsline {section}{\numberline {7.3}Augmenting Prolog via Java:\\developing new libraries}{170}{section.7.3}
\contentsline {subsection}{\numberline {7.3.1}Syntactic conventions}{172}{subsection.7.3.1}
\contentsline {subsubsection}{\numberline {7.3.1.1}Capturing exceptions raised in libraries}{174}{subsubsection.7.3.1.1}
\contentsline {subsubsection}{\numberline {7.3.1.2}Capturing the Java output in Prolog}{174}{subsubsection.7.3.1.2}
\contentsline {subsubsection}{\numberline {7.3.1.3}Naming issues}{174}{subsubsection.7.3.1.3}
\contentsline {subsection}{\numberline {7.3.2}Hybrid Java+Prolog libraries}{178}{subsection.7.3.2}
\contentsline {subsection}{\numberline {7.3.3}Library loading issues}{180}{subsection.7.3.3}
\contentsline {subsection}{\numberline {7.3.4}Library Name}{181}{subsection.7.3.4}
\contentsline {section}{\numberline {7.4}Augmenting Java via Prolog:\\the P@J framework}{181}{section.7.4}
\contentsline {subsection}{\numberline {7.4.1}Term taxonomy}{183}{subsection.7.4.1}
\contentsline {subsection}{\numberline {7.4.2}Examples}{184}{subsection.7.4.2}
\contentsline {chapter}{\numberline {8}Multi-paradigm programming in Prolog and .NET}{190}{chapter.8}
\contentsline {section}{\numberline {8.1}A bit of history}{190}{section.8.1}
\contentsline {subsection}{\numberline {8.1.1}\unhbox \voidb@x \hbox {{\sf {tu}}Prolog}{} 2.1 and CSharpLibrary}{190}{subsection.8.1.1}
\contentsline {subsection}{\numberline {8.1.2}\unhbox \voidb@x \hbox {{\sf {tu}}Prolog}{} 2.1.3: CSharpLibrary + exceptions}{191}{subsection.8.1.2}
\contentsline {subsection}{\numberline {8.1.3}\unhbox \voidb@x \hbox {{\sf {tu}}Prolog}{} 2.2 and CLILibrary}{191}{subsection.8.1.3}
\contentsline {section}{\numberline {8.2}IKVM Basics}{193}{section.8.2}
\contentsline {subsection}{\numberline {8.2.1}Dynamic vs. Static modality}{193}{subsection.8.2.1}
\contentsline {subsection}{\numberline {8.2.2}Class loading issues}{194}{subsection.8.2.2}
\contentsline {subsection}{\numberline {8.2.3}The other way: writing .NET applications in Java}{195}{subsection.8.2.3}
\contentsline {section}{\numberline {8.3}\unhbox \voidb@x \hbox {{\sf {tu}}Prolog}.NET now}{197}{section.8.3}
\contentsline {subsection}{\numberline {8.3.1}Highlights}{197}{subsection.8.3.1}
\contentsline {section}{\numberline {8.4}Using .NET from Prolog: OOLibrary}{199}{section.8.4}
\contentsline {subsubsection}{\numberline {8.4.0.1}Motivation}{199}{subsubsection.8.4.0.1}
\contentsline {subsubsection}{\numberline {8.4.0.2}Language Conventions}{200}{subsubsection.8.4.0.2}
\contentsline {subsubsection}{\numberline {8.4.0.3}OOLibrary: predicates}{202}{subsubsection.8.4.0.3}
\contentsline {subsection}{\numberline {8.4.1}Examples}{203}{subsection.8.4.1}
\contentsline {subsection}{\numberline {8.4.2}Handling .NET Exceptions}{207}{subsection.8.4.2}
\contentsline {section}{\numberline {8.5}Using Prolog from .NET: the API}{207}{section.8.5}
\contentsline {section}{\numberline {8.6}Augmenting Prolog via .NET:\\developing new libraries}{208}{section.8.6}
\contentsline {subsection}{\numberline {8.6.1}Capturing exceptions raised in .NET libraries}{212}{subsection.8.6.1}
\contentsline {subsection}{\numberline {8.6.2}Capturing the .NET output in Prolog}{212}{subsection.8.6.2}
\contentsline {section}{\numberline {8.7}Augmenting .NET via Prolog:\\the P@J framework revised}{212}{section.8.7}
\contentsline {subsection}{\numberline {8.7.1}P@.NET via code generators}{215}{subsection.8.7.1}
\contentsline {section}{\numberline {8.8}Putting everything together}{217}{section.8.8}
\contentsline {subsection}{\numberline {8.8.1}Example: Multi-language TicTacToe}{219}{subsection.8.8.1}
\contentsline {chapter}{\numberline {9}Version history}{223}{chapter.9}
\contentsline {subsection}{\numberline {9.0.2}Version 2.0}{223}{subsection.9.0.2}
\contentsline {subsection}{\numberline {9.0.3}From Version 2.0 to Version 2.0.1}{224}{subsection.9.0.3}
\contentsline {subsection}{\numberline {9.0.4}From Version 2.0.1 to Version 2.1}{226}{subsection.9.0.4}
\contentsline {subsection}{\numberline {9.0.5}From Version 2.1 to Version 2.2}{229}{subsection.9.0.5}
\contentsline {subsection}{\numberline {9.0.6}From Version 2.2 to Version 2.3.0}{229}{subsection.9.0.6}
\contentsline {subsection}{\numberline {9.0.7}From Version 2.3.0 to Version 2.3.1}{231}{subsection.9.0.7}
\contentsline {subsection}{\numberline {9.0.8}From Version 2.3.1 to Version 2.4}{231}{subsection.9.0.8}
\contentsline {subsection}{\numberline {9.0.9}From Version 2.4 to Version 2.5}{231}{subsection.9.0.9}
\contentsline {subsection}{\numberline {9.0.10}From Version 2.5 to Version 2.6}{231}{subsection.9.0.10}
\contentsline {subsection}{\numberline {9.0.11}From Version 2.6 to Version 2.7}{232}{subsection.9.0.11}
\contentsline {subsection}{\numberline {9.0.12}From Version 2.7 to Version 2.7.2}{232}{subsection.9.0.12}
\contentsline {section}{\numberline {9.1}Acknowledgments}{232}{section.9.1}
